Extracting hyperspectral data for plant species in NEON ground plots • neonaop
…
And gather the hyperspectral columns (converting the data from wide to long form).

long_df <- hs_df %>%
  gather(band, reflectance, 
         -starts_with('adj'), -plantStatus, -scientificName, -uid.x) %>%
  separate(band, c('index', 'wavelength')) %>%
  mutate(wavelength = parse_number(wavelength)) %>%
  separate(scientificName, into = c('genus', 'species'), sep = ' ', 
           extra = 'drop', remove = FALSE) %>%
  mutate(genusspecies = paste(genus, species)) %>%
  # filter water vapor bands out
  filter(!between(wavelength, 1340, 1445), 
         !between(wavelength, 1790, 1955))
long_df
#> # A tibble: 4,081 x 11
#>    uid.x adjEasting adjNorthing plantStatus scientificName genus species
#>    <chr>      <dbl>       <dbl> <chr>       <chr>          <chr> <chr>  
#>  1 fa8a…    462671.    3645859. Live        Pinus palustr… Pinus palust…
#>  2 018e…    462758.    3645667. Live        Cornus florid… Corn… florida
#>  3 97e7…    462831.    3646134. Live        Pinus echinat… Pinus echina…
#>  4 237a…    462865.    3646029. Live        Pinus palustr… Pinus palust…
#>  5 f91d…    462865.    3646029. Live        Pinus palustr… Pinus palust…
#>  6 e635…    462719.    3646114. Live        Quercus velut… Quer… veluti…
#>  7 73c2…    462733.    3646108. Live        Cornus florid… Corn… florida
#>  8 f68a…    463029.    3645994. Live        Cornus florid… Corn… florida
#>  9 8d73…    463033.    3646187. Live        Cornus florid… Corn… florida
#> 10 f0f3…    463033.    3646187. Live        Cornus florid… Corn… florida
#> # … with 4,071 more rows, and 4 more variables: index <chr>,
#> #   wavelength <dbl>, reflectance <dbl>, genusspecies <chr>
…
